EESchema Schematic File Version 4
LIBS:tinycoolboard-cache
EELAYER 26 0
EELAYER END
$Descr A4 11693 8268
encoding utf-8
Sheet 1 1
Title ""
Date ""
Rev ""
Comp ""
Comment1 ""
Comment2 ""
Comment3 ""
Comment4 ""
$EndDescr
$Comp
L tinycoolboard:STM32F070 U3
U 1 1 5AA6BEC1
P 4975 3350
F 0 "U3" H 5575 3640 60  0000 C CNN
F 1 "STM32F070" H 5575 3534 60  0000 C CNN
F 2 "Housings_SSOP:SSOP-20_4.4x6.5mm_Pitch0.65mm" H 4975 3350 50  0001 C CNN
F 3 "" H 4975 3350 50  0001 C CNN
	1    4975 3350
	1    0    0    -1  
$EndComp
$Comp
L device:R R5
U 1 1 5AA6C070
P 7975 1925
F 0 "R5" H 8045 1971 50  0000 L CNN
F 1 "R" H 8045 1880 50  0000 L CNN
F 2 "Resistors_SMD:R_0603_HandSoldering" V 7905 1925 50  0001 C CNN
F 3 "" H 7975 1925 50  0001 C CNN
	1    7975 1925
	1    0    0    -1  
$EndComp
$Comp
L power:+3V3 #PWR037
U 1 1 5AA6C255
P 7200 3625
F 0 "#PWR037" H 7200 3475 50  0001 C CNN
F 1 "+3V3" H 7215 3798 50  0000 C CNN
F 2 "" H 7200 3625 50  0001 C CNN
F 3 "" H 7200 3625 50  0001 C CNN
	1    7200 3625
	1    0    0    -1  
$EndComp
$Comp
L device:C_Small C1
U 1 1 5AA6C46F
P 7200 3800
F 0 "C1" H 7292 3846 50  0000 L CNN
F 1 "100nF" H 7292 3755 50  0000 L CNN
F 2 "Capacitors_SMD:C_0603_HandSoldering" H 7200 3800 50  0001 C CNN
F 3 "" H 7200 3800 50  0001 C CNN
	1    7200 3800
	1    0    0    -1  
$EndComp
$Comp
L device:R R4
U 1 1 5AA6C55B
P 7600 1925
F 0 "R4" H 7670 1971 50  0000 L CNN
F 1 "10k" H 7670 1880 50  0000 L CNN
F 2 "Resistors_SMD:R_0603_HandSoldering" V 7530 1925 50  0001 C CNN
F 3 "" H 7600 1925 50  0001 C CNN
	1    7600 1925
	1    0    0    -1  
$EndComp
Text GLabel 4975 3650 0    50   Input ~ 0
NRST
Text GLabel 7600 1725 1    50   Input ~ 0
NRST
Wire Wire Line
	7600 2125 7600 2075
Wire Wire Line
	7600 1775 7600 1725
Wire Wire Line
	7975 1700 7975 1775
Text GLabel 4975 3350 0    50   Input ~ 0
BOOT0
Text GLabel 7975 1700 1    50   Input ~ 0
BOOT0
Wire Wire Line
	7975 2125 7975 2075
Wire Wire Line
	7200 3625 7200 3700
$Comp
L power:+3V3 #PWR033
U 1 1 5AA6CABE
P 6175 3750
F 0 "#PWR033" H 6175 3600 50  0001 C CNN
F 1 "+3V3" V 6190 3878 50  0000 L CNN
F 2 "" H 6175 3750 50  0001 C CNN
F 3 "" H 6175 3750 50  0001 C CNN
	1    6175 3750
	0    1    1    0   
$EndComp
$Comp
L power:GND #PWR038
U 1 1 5AA6CBB4
P 7200 3900
F 0 "#PWR038" H 7200 3650 50  0001 C CNN
F 1 "GND" H 7205 3727 50  0000 C CNN
F 2 "" H 7200 3900 50  0001 C CNN
F 3 "" H 7200 3900 50  0001 C CNN
	1    7200 3900
	1    0    0    -1  
$EndComp
$Comp
L power:+3V3 #PWR028
U 1 1 5AA6CCE3
P 4975 3750
F 0 "#PWR028" H 4975 3600 50  0001 C CNN
F 1 "+3V3" V 4990 3878 50  0000 L CNN
F 2 "" H 4975 3750 50  0001 C CNN
F 3 "" H 4975 3750 50  0001 C CNN
	1    4975 3750
	0    -1   -1   0   
$EndComp
$Comp
L power:+3V3 #PWR040
U 1 1 5AA6CFDD
P 7725 3625
F 0 "#PWR040" H 7725 3475 50  0001 C CNN
F 1 "+3V3" H 7740 3798 50  0000 C CNN
F 2 "" H 7725 3625 50  0001 C CNN
F 3 "" H 7725 3625 50  0001 C CNN
	1    7725 3625
	1    0    0    -1  
$EndComp
$Comp
L device:C_Small C2
U 1 1 5AA6CFE3
P 7725 3800
F 0 "C2" H 7817 3846 50  0000 L CNN
F 1 "100nF" H 7817 3755 50  0000 L CNN
F 2 "Capacitors_SMD:C_0603_HandSoldering" H 7725 3800 50  0001 C CNN
F 3 "" H 7725 3800 50  0001 C CNN
	1    7725 3800
	1    0    0    -1  
$EndComp
Wire Wire Line
	7725 3625 7725 3700
$Comp
L power:GND #PWR041
U 1 1 5AA6CFEA
P 7725 3900
F 0 "#PWR041" H 7725 3650 50  0001 C CNN
F 1 "GND" H 7730 3727 50  0000 C CNN
F 2 "" H 7725 3900 50  0001 C CNN
F 3 "" H 7725 3900 50  0001 C CNN
	1    7725 3900
	1    0    0    -1  
$EndComp
$Comp
L power:GND #PWR034
U 1 1 5AA6D1F2
P 6175 3850
F 0 "#PWR034" H 6175 3600 50  0001 C CNN
F 1 "GND" V 6180 3722 50  0000 R CNN
F 2 "" H 6175 3850 50  0001 C CNN
F 3 "" H 6175 3850 50  0001 C CNN
	1    6175 3850
	0    -1   -1   0   
$EndComp
Text GLabel 6175 3350 2    50   Input ~ 0
SWI_CLK
Text GLabel 6175 3450 2    50   Input ~ 0
SWI_DATA
Text GLabel 6175 3550 2    50   Input ~ 0
USB_DP
Text GLabel 6175 3650 2    50   Input ~ 0
USB_DM
Text GLabel 6175 4250 2    50   Input ~ 0
SPI_SCK
Text GLabel 6175 4150 2    50   Input ~ 0
SPI_MISO
Text GLabel 6175 4050 2    50   Input ~ 0
SPI_MOSI
Text GLabel 6175 3950 2    50   Input ~ 0
RF_CE
Text GLabel 4975 4150 0    50   Input ~ 0
RF_CSN
Text GLabel 4975 3450 0    50   Input ~ 0
LOAD_SW1
Text GLabel 4975 3550 0    50   Input ~ 0
LOAD_SW2
Text GLabel 4975 3950 0    50   Input ~ 0
CELL4_ADC
Text GLabel 6850 1700 0    50   Input ~ 0
CELL4_ADC
$Comp
L device:R R2
U 1 1 5AA6D4C8
P 7000 1450
F 0 "R2" H 7070 1496 50  0000 L CNN
F 1 "R" H 7070 1405 50  0000 L CNN
F 2 "Resistors_SMD:R_0603_HandSoldering" V 6930 1450 50  0001 C CNN
F 3 "" H 7000 1450 50  0001 C CNN
	1    7000 1450
	1    0    0    -1  
$EndComp
Wire Wire Line
	7000 1225 7000 1300
$Comp
L device:R R3
U 1 1 5AA6D621
P 7000 1975
F 0 "R3" H 7070 2021 50  0000 L CNN
F 1 "R" H 7070 1930 50  0000 L CNN
F 2 "Resistors_SMD:R_0603_HandSoldering" V 6930 1975 50  0001 C CNN
F 3 "" H 7000 1975 50  0001 C CNN
	1    7000 1975
	1    0    0    -1  
$EndComp
$Comp
L power:GND #PWR036
U 1 1 5AA6D6B2
P 7000 2225
F 0 "#PWR036" H 7000 1975 50  0001 C CNN
F 1 "GND" H 7005 2052 50  0000 C CNN
F 2 "" H 7000 2225 50  0001 C CNN
F 3 "" H 7000 2225 50  0001 C CNN
	1    7000 2225
	1    0    0    -1  
$EndComp
Wire Wire Line
	7000 1600 7000 1700
Wire Wire Line
	6850 1700 7000 1700
Connection ~ 7000 1700
Wire Wire Line
	7000 1700 7000 1825
Wire Wire Line
	7000 2225 7000 2125
Text GLabel 8475 1650 1    50   Input ~ 0
RF_CSN
$Comp
L device:R R6
U 1 1 5AA6D916
P 8475 1900
F 0 "R6" H 8545 1946 50  0000 L CNN
F 1 "10k" H 8545 1855 50  0000 L CNN
F 2 "Resistors_SMD:R_0603_HandSoldering" V 8405 1900 50  0001 C CNN
F 3 "" H 8475 1900 50  0001 C CNN
	1    8475 1900
	1    0    0    -1  
$EndComp
$Comp
L power:+3V3 #PWR043
U 1 1 5AA6D9CE
P 8475 2150
F 0 "#PWR043" H 8475 2000 50  0001 C CNN
F 1 "+3V3" H 8490 2323 50  0000 C CNN
F 2 "" H 8475 2150 50  0001 C CNN
F 3 "" H 8475 2150 50  0001 C CNN
	1    8475 2150
	-1   0    0    1   
$EndComp
Wire Wire Line
	8475 1650 8475 1750
Wire Wire Line
	8475 2050 8475 2150
Text GLabel 9450 1675 1    50   Input ~ 0
LOAD_SW1
$Comp
L device:R R7
U 1 1 5AA6DFB9
P 9000 1900
F 0 "R7" H 9070 1946 50  0000 L CNN
F 1 "10k" H 9070 1855 50  0000 L CNN
F 2 "Resistors_SMD:R_0603_HandSoldering" V 8930 1900 50  0001 C CNN
F 3 "" H 9000 1900 50  0001 C CNN
	1    9000 1900
	1    0    0    -1  
$EndComp
Wire Wire Line
	9000 1650 9000 1750
Wire Wire Line
	9000 2050 9000 2150
Text GLabel 9000 1650 1    50   Input ~ 0
LOAD_SW2
$Comp
L device:R R8
U 1 1 5AA6E193
P 9450 1925
F 0 "R8" H 9520 1971 50  0000 L CNN
F 1 "10k" H 9520 1880 50  0000 L CNN
F 2 "Resistors_SMD:R_0603_HandSoldering" V 9380 1925 50  0001 C CNN
F 3 "" H 9450 1925 50  0001 C CNN
	1    9450 1925
	1    0    0    -1  
$EndComp
Wire Wire Line
	9450 1675 9450 1775
Wire Wire Line
	9450 2075 9450 2175
$Comp
L power:GND #PWR045
U 1 1 5AA6E7A2
P 9450 2175
F 0 "#PWR045" H 9450 1925 50  0001 C CNN
F 1 "GND" H 9455 2002 50  0000 C CNN
F 2 "" H 9450 2175 50  0001 C CNN
F 3 "" H 9450 2175 50  0001 C CNN
	1    9450 2175
	1    0    0    -1  
$EndComp
$Comp
L power:GND #PWR044
U 1 1 5AA6E7CC
P 9000 2150
F 0 "#PWR044" H 9000 1900 50  0001 C CNN
F 1 "GND" H 9005 1977 50  0000 C CNN
F 2 "" H 9000 2150 50  0001 C CNN
F 3 "" H 9000 2150 50  0001 C CNN
	1    9000 2150
	1    0    0    -1  
$EndComp
$Comp
L power:GND #PWR042
U 1 1 5AA6E8C1
P 7975 2125
F 0 "#PWR042" H 7975 1875 50  0001 C CNN
F 1 "GND" H 7980 1952 50  0000 C CNN
F 2 "" H 7975 2125 50  0001 C CNN
F 3 "" H 7975 2125 50  0001 C CNN
	1    7975 2125
	1    0    0    -1  
$EndComp
$Comp
L power:+3V3 #PWR039
U 1 1 5AA6EBB7
P 7600 2125
F 0 "#PWR039" H 7600 1975 50  0001 C CNN
F 1 "+3V3" H 7615 2298 50  0000 C CNN
F 2 "" H 7600 2125 50  0001 C CNN
F 3 "" H 7600 2125 50  0001 C CNN
	1    7600 2125
	-1   0    0    1   
$EndComp
$Comp
L conn:CONN_01X05 J1
U 1 1 5AA7078D
P 1275 4350
F 0 "J1" H 1194 4765 50  0000 C CNN
F 1 "USB" H 1194 4674 50  0000 C CNN
F 2 "Pin_Headers:Pin_Header_Straight_1x05" H 1275 4350 50  0001 C CNN
F 3 "" H 1275 4350 50  0001 C CNN
	1    1275 4350
	-1   0    0    -1  
$EndComp
$Comp
L power:GND #PWR04
U 1 1 5AA71332
P 1475 4150
F 0 "#PWR04" H 1475 3900 50  0001 C CNN
F 1 "GND" V 1480 4022 50  0000 R CNN
F 2 "" H 1475 4150 50  0001 C CNN
F 3 "" H 1475 4150 50  0001 C CNN
	1    1475 4150
	0    -1   -1   0   
$EndComp
Text GLabel 1475 4350 2    50   Input ~ 0
USB_DP
Text GLabel 1475 4450 2    50   Input ~ 0
USB_DM
NoConn ~ 1475 4250
NoConn ~ 1475 4550
$Comp
L conn:CONN_01X03 J5
U 1 1 5AA7193E
P 2200 4350
F 0 "J5" H 2119 4025 50  0000 C CNN
F 1 "SWD" H 2119 4116 50  0000 C CNN
F 2 "Pin_Headers:Pin_Header_Straight_1x03_Pitch2.54mm" H 2200 4350 50  0001 C CNN
F 3 "" H 2200 4350 50  0001 C CNN
	1    2200 4350
	-1   0    0    1   
$EndComp
$Comp
L power:GND #PWR010
U 1 1 5AA721DC
P 2400 4450
F 0 "#PWR010" H 2400 4200 50  0001 C CNN
F 1 "GND" H 2405 4277 50  0000 C CNN
F 2 "" H 2400 4450 50  0001 C CNN
F 3 "" H 2400 4450 50  0001 C CNN
	1    2400 4450
	0    -1   -1   0   
$EndComp
Text GLabel 2400 4350 2    50   Input ~ 0
SWI_CLK
Text GLabel 2400 4250 2    50   Input ~ 0
SWI_DATA
$Comp
L regul:MCP1700T-3002E_TT U1
U 1 1 5AA7368B
P 2550 1675
F 0 "U1" H 2550 2042 50  0000 C CNN
F 1 "MCP1702T" H 2550 1951 50  0000 C CNN
F 2 "TO_SOT_Packages_SMD:TSOT-23" H 2550 1775 50  0001 C CNN
F 3 "" H 2550 1775 50  0001 C CNN
	1    2550 1675
	1    0    0    -1  
$EndComp
$Comp
L power:+3V3 #PWR09
U 1 1 5AA737BB
P 3025 1575
F 0 "#PWR09" H 3025 1425 50  0001 C CNN
F 1 "+3V3" V 3040 1703 50  0000 L CNN
F 2 "" H 3025 1575 50  0001 C CNN
F 3 "" H 3025 1575 50  0001 C CNN
	1    3025 1575
	0    1    1    0   
$EndComp
$Comp
L device:C_Small C3
U 1 1 5AA739AA
P 2925 1800
F 0 "C3" H 3017 1846 50  0000 L CNN
F 1 "1uF" H 3017 1755 50  0000 L CNN
F 2 "Capacitors_SMD:C_0805_HandSoldering" H 2925 1800 50  0001 C CNN
F 3 "" H 2925 1800 50  0001 C CNN
	1    2925 1800
	1    0    0    -1  
$EndComp
Wire Wire Line
	2925 1575 2925 1700
$Comp
L power:GND #PWR08
U 1 1 5AA739B1
P 2925 1900
F 0 "#PWR08" H 2925 1650 50  0001 C CNN
F 1 "GND" H 2930 1727 50  0000 C CNN
F 2 "" H 2925 1900 50  0001 C CNN
F 3 "" H 2925 1900 50  0001 C CNN
	1    2925 1900
	1    0    0    -1  
$EndComp
$Comp
L power:GND #PWR03
U 1 1 5AA73FFE
P 2550 1875
F 0 "#PWR03" H 2550 1625 50  0001 C CNN
F 1 "GND" H 2555 1702 50  0000 C CNN
F 2 "" H 2550 1875 50  0001 C CNN
F 3 "" H 2550 1875 50  0001 C CNN
	1    2550 1875
	1    0    0    -1  
$EndComp
$Comp
L rfcontroller-cache:rfcontroller-rescue_FDS6930-RESCUE-rfcontroller U4
U 1 1 5AA74D59
P 5375 5125
F 0 "U4" H 5375 5565 60  0000 C CNN
F 1 "FDS6930" H 5375 5459 60  0000 C CNN
F 2 "Power_Integrations:SO-8" H 4975 5275 60  0001 C CNN
F 3 "" H 4975 5275 60  0001 C CNN
	1    5375 5125
	1    0    0    -1  
$EndComp
Text GLabel 4925 5025 0    50   Input ~ 0
LOAD1
Text GLabel 4925 5225 0    50   Input ~ 0
LOAD2
Wire Wire Line
	4975 4975 4975 5025
Wire Wire Line
	4925 5025 4975 5025
Connection ~ 4975 5025
Wire Wire Line
	4975 5025 4975 5075
Wire Wire Line
	4975 5175 4975 5225
Wire Wire Line
	4925 5225 4975 5225
Connection ~ 4975 5225
Wire Wire Line
	4975 5225 4975 5275
Text GLabel 5775 5175 2    50   Input ~ 0
LOAD_SW2
Text GLabel 5775 4975 2    50   Input ~ 0
LOAD_SW1
$Comp
L power:GND #PWR032
U 1 1 5AA767C0
P 5775 5275
F 0 "#PWR032" H 5775 5025 50  0001 C CNN
F 1 "GND" H 5780 5102 50  0000 C CNN
F 2 "" H 5775 5275 50  0001 C CNN
F 3 "" H 5775 5275 50  0001 C CNN
	1    5775 5275
	0    -1   -1   0   
$EndComp
$Comp
L power:GND #PWR031
U 1 1 5AA767ED
P 5775 5075
F 0 "#PWR031" H 5775 4825 50  0001 C CNN
F 1 "GND" H 5780 4902 50  0000 C CNN
F 2 "" H 5775 5075 50  0001 C CNN
F 3 "" H 5775 5075 50  0001 C CNN
	1    5775 5075
	0    -1   -1   0   
$EndComp
$Comp
L conn:CONN_01X02 J2
U 1 1 5AA76CF3
P 1725 5075
F 0 "J2" H 1802 5116 50  0000 L CNN
F 1 "OUT1" H 1802 5025 50  0000 L CNN
F 2 "Connectors_Terminal_Blocks:TerminalBlock_Pheonix_MKDS1.5-2pol" H 1725 5075 50  0001 C CNN
F 3 "" H 1725 5075 50  0001 C CNN
	1    1725 5075
	1    0    0    -1  
$EndComp
$Comp
L conn:CONN_01X02 J3
U 1 1 5AA76E0B
P 1725 5425
F 0 "J3" H 1802 5466 50  0000 L CNN
F 1 "OUT2" H 1802 5375 50  0000 L CNN
F 2 "Connectors_Terminal_Blocks:TerminalBlock_Pheonix_MKDS1.5-2pol" H 1725 5425 50  0001 C CNN
F 3 "" H 1725 5425 50  0001 C CNN
	1    1725 5425
	1    0    0    -1  
$EndComp
Text GLabel 1525 5025 0    50   Input ~ 0
LOAD1
Text GLabel 1525 5375 0    50   Input ~ 0
LOAD2
$Comp
L conn:CONN_01X02 J4
U 1 1 5AA7732E
P 1725 5875
F 0 "J4" H 1803 5916 50  0000 L CNN
F 1 "IN" H 1803 5825 50  0000 L CNN
F 2 "Connectors_Terminal_Blocks:TerminalBlock_Pheonix_MKDS1.5-2pol" H 1725 5875 50  0001 C CNN
F 3 "" H 1725 5875 50  0001 C CNN
	1    1725 5875
	1    0    0    -1  
$EndComp
$Comp
L power:GND #PWR07
U 1 1 5AA77618
P 1525 5825
F 0 "#PWR07" H 1525 5575 50  0001 C CNN
F 1 "GND" V 1530 5697 50  0000 R CNN
F 2 "" H 1525 5825 50  0001 C CNN
F 3 "" H 1525 5825 50  0001 C CNN
	1    1525 5825
	0    1    1    0   
$EndComp
$Comp
L device:C_Small C4
U 1 1 5AA7EAA4
P 2175 1725
F 0 "C4" H 2200 1800 50  0000 L CNN
F 1 "1uF" H 2225 1675 50  0000 L CNN
F 2 "Capacitors_SMD:C_0805_HandSoldering" H 2175 1725 50  0001 C CNN
F 3 "" H 2175 1725 50  0001 C CNN
	1    2175 1725
	1    0    0    -1  
$EndComp
$Comp
L power:GND #PWR02
U 1 1 5AA7EAAA
P 2175 1825
F 0 "#PWR02" H 2175 1575 50  0001 C CNN
F 1 "GND" H 2180 1652 50  0000 C CNN
F 2 "" H 2175 1825 50  0001 C CNN
F 3 "" H 2175 1825 50  0001 C CNN
	1    2175 1825
	1    0    0    -1  
$EndComp
Wire Wire Line
	2850 1575 2925 1575
Connection ~ 2925 1575
Wire Wire Line
	2925 1575 3025 1575
Wire Wire Line
	2075 1575 2175 1575
Wire Wire Line
	2175 1625 2175 1575
Connection ~ 2175 1575
Wire Wire Line
	2175 1575 2250 1575
Wire Notes Line
	3400 1175 3400 2150
Text GLabel 4975 3850 0    50   Input ~ 0
CELL1_ADC
Text GLabel 2075 1575 0    50   Input ~ 0
CELL1_VCC
Text GLabel 5250 1700 0    50   Input ~ 0
CELL1_ADC
$Comp
L device:R R9
U 1 1 5AAD4F30
P 5400 1450
F 0 "R9" H 5470 1496 50  0000 L CNN
F 1 "R" H 5470 1405 50  0000 L CNN
F 2 "Resistors_SMD:R_0603_HandSoldering" V 5330 1450 50  0001 C CNN
F 3 "" H 5400 1450 50  0001 C CNN
	1    5400 1450
	1    0    0    -1  
$EndComp
Wire Wire Line
	5400 1225 5400 1300
$Comp
L device:R R10
U 1 1 5AAD4F3D
P 5400 1975
F 0 "R10" H 5470 2021 50  0000 L CNN
F 1 "R" H 5470 1930 50  0000 L CNN
F 2 "Resistors_SMD:R_0603_HandSoldering" V 5330 1975 50  0001 C CNN
F 3 "" H 5400 1975 50  0001 C CNN
	1    5400 1975
	1    0    0    -1  
$EndComp
$Comp
L power:GND #PWR011
U 1 1 5AAD4F43
P 5400 2225
F 0 "#PWR011" H 5400 1975 50  0001 C CNN
F 1 "GND" H 5405 2052 50  0000 C CNN
F 2 "" H 5400 2225 50  0001 C CNN
F 3 "" H 5400 2225 50  0001 C CNN
	1    5400 2225
	1    0    0    -1  
$EndComp
Wire Wire Line
	5400 1600 5400 1700
Wire Wire Line
	5250 1700 5400 1700
Connection ~ 5400 1700
Wire Wire Line
	5400 1700 5400 1825
Wire Wire Line
	5400 2225 5400 2125
Text GLabel 5400 1225 1    50   Input ~ 0
CELL1_VIN
Text GLabel 4975 4050 0    50   Input ~ 0
RF_IRQ
Text GLabel 4300 1275 1    50   Input ~ 0
LED1
$Comp
L device:R R1
U 1 1 5AAD5A3A
P 4300 1425
F 0 "R1" H 4370 1471 50  0000 L CNN
F 1 "R" H 4370 1380 50  0000 L CNN
F 2 "Resistors_SMD:R_0603_HandSoldering" V 4230 1425 50  0001 C CNN
F 3 "" H 4300 1425 50  0001 C CNN
	1    4300 1425
	1    0    0    -1  
$EndComp
$Comp
L device:LED D1
U 1 1 5AAD5C3C
P 4300 1725
F 0 "D1" V 4338 1608 50  0000 R CNN
F 1 "LED" V 4247 1608 50  0000 R CNN
F 2 "LEDs:LED_1206" H 4300 1725 50  0001 C CNN
F 3 "" H 4300 1725 50  0001 C CNN
	1    4300 1725
	0    -1   -1   0   
$EndComp
$Comp
L power:GND #PWR06
U 1 1 5AAD5D86
P 4300 1875
F 0 "#PWR06" H 4300 1625 50  0001 C CNN
F 1 "GND" H 4305 1702 50  0000 C CNN
F 2 "" H 4300 1875 50  0001 C CNN
F 3 "" H 4300 1875 50  0001 C CNN
	1    4300 1875
	1    0    0    -1  
$EndComp
$Comp
L conn:CONN_01X02 J6
U 1 1 5AAD69C9
P 1750 6300
F 0 "J6" H 1828 6341 50  0000 L CNN
F 1 "IN" H 1828 6250 50  0000 L CNN
F 2 "Pin_Headers:Pin_Header_Straight_1x02" H 1750 6300 50  0001 C CNN
F 3 "" H 1750 6300 50  0001 C CNN
	1    1750 6300
	1    0    0    -1  
$EndComp
$Comp
L power:GND #PWR01
U 1 1 5AAD69CF
P 1550 6250
F 0 "#PWR01" H 1550 6000 50  0001 C CNN
F 1 "GND" V 1555 6122 50  0000 R CNN
F 2 "" H 1550 6250 50  0001 C CNN
F 3 "" H 1550 6250 50  0001 C CNN
	1    1550 6250
	0    1    1    0   
$EndComp
Text GLabel 1550 6350 0    50   Input ~ 0
CELL1_VIN
Text GLabel 7000 1225 1    50   Input ~ 0
CELL4_VCC
Text GLabel 3225 2925 2    50   Input ~ 0
CELL4_VIN
Text GLabel 1525 5475 0    50   Input ~ 0
CELL4_VCC
Text GLabel 1525 5125 0    50   Input ~ 0
CELL1_VCC
$Comp
L device:Q_NMOS_GDS Q1
U 1 1 5AAD8515
P 3025 2825
F 0 "Q1" V 3275 2825 50  0000 C CNN
F 1 "si2319" V 3366 2825 50  0000 C CNN
F 2 "TO_SOT_Packages_SMD:SOT-23" H 3225 2925 50  0001 C CNN
F 3 "" H 3025 2825 50  0001 C CNN
	1    3025 2825
	0    -1   1    0   
$EndComp
$Comp
L power:GND #PWR05
U 1 1 5AADB2C5
P 3025 2625
F 0 "#PWR05" H 3025 2375 50  0001 C CNN
F 1 "GND" H 3030 2452 50  0000 C CNN
F 2 "" H 3025 2625 50  0001 C CNN
F 3 "" H 3025 2625 50  0001 C CNN
	1    3025 2625
	-1   0    0    1   
$EndComp
Text GLabel 2825 2925 0    50   Input ~ 0
CELL4_VCC
Wire Notes Line
	8425 4650 8425 4625
$Comp
L conn:CONN_02X04 J7
U 1 1 5AB557EA
P 3650 4400
F 0 "J7" H 3650 4765 50  0000 C CNN
F 1 "NRF24LO+" H 3650 4674 50  0000 C CNN
F 2 "Pin_Headers:Pin_Header_Straight_2x04" H 3650 3200 50  0001 C CNN
F 3 "" H 3650 3200 50  0001 C CNN
	1    3650 4400
	1    0    0    -1  
$EndComp
Text GLabel 3400 4450 0    50   Input ~ 0
SPI_SCK
Text GLabel 3400 4550 0    50   Input ~ 0
SPI_MISO
Text GLabel 3900 4450 2    50   Input ~ 0
SPI_MOSI
Text GLabel 3400 4350 0    50   Input ~ 0
RF_CE
Text GLabel 3900 4550 2    50   Input ~ 0
RF_IRQ
Text GLabel 3900 4350 2    50   Input ~ 0
RF_CSN
$Comp
L power:+3V3 #PWR013
U 1 1 5AB55E22
P 3900 4250
F 0 "#PWR013" H 3900 4100 50  0001 C CNN
F 1 "+3V3" V 3915 4378 50  0000 L CNN
F 2 "" H 3900 4250 50  0001 C CNN
F 3 "" H 3900 4250 50  0001 C CNN
	1    3900 4250
	0    1    1    0   
$EndComp
$Comp
L power:GND #PWR012
U 1 1 5AB55E95
P 3400 4250
F 0 "#PWR012" H 3400 4000 50  0001 C CNN
F 1 "GND" V 3405 4122 50  0000 R CNN
F 2 "" H 3400 4250 50  0001 C CNN
F 3 "" H 3400 4250 50  0001 C CNN
	1    3400 4250
	0    1    1    0   
$EndComp
Text GLabel 1525 5925 0    50   Input ~ 0
CELL4_VIN
$Comp
L conn:CONN_01X02 J8
U 1 1 5AB8FBB5
P 1825 6825
F 0 "J8" H 1902 6866 50  0000 L CNN
F 1 "CR2032" H 1902 6775 50  0000 L CNN
F 2 "Battery_Holders:Keystone_1058_1x2032-CoinCell" H 1825 6825 50  0001 C CNN
F 3 "" H 1825 6825 50  0001 C CNN
	1    1825 6825
	1    0    0    -1  
$EndComp
$Comp
L power:GND #PWR014
U 1 1 5AB905E8
P 1625 6875
F 0 "#PWR014" H 1625 6625 50  0001 C CNN
F 1 "GND" V 1630 6747 50  0000 R CNN
F 2 "" H 1625 6875 50  0001 C CNN
F 3 "" H 1625 6875 50  0001 C CNN
	1    1625 6875
	0    1    1    0   
$EndComp
Text GLabel 4975 4250 0    50   Input ~ 0
LED1
Text GLabel 1750 2950 2    50   Input ~ 0
CELL1_VIN
$Comp
L device:Q_NMOS_GDS Q2
U 1 1 5ABA3F19
P 1550 2850
F 0 "Q2" V 1800 2850 50  0000 C CNN
F 1 "si2319" V 1891 2850 50  0000 C CNN
F 2 "TO_SOT_Packages_SMD:SOT-23" H 1750 2950 50  0001 C CNN
F 3 "" H 1550 2850 50  0001 C CNN
	1    1550 2850
	0    -1   1    0   
$EndComp
$Comp
L power:GND #PWR0101
U 1 1 5ABA3F20
P 1550 2650
F 0 "#PWR0101" H 1550 2400 50  0001 C CNN
F 1 "GND" H 1555 2477 50  0000 C CNN
F 2 "" H 1550 2650 50  0001 C CNN
F 3 "" H 1550 2650 50  0001 C CNN
	1    1550 2650
	-1   0    0    1   
$EndComp
Text GLabel 1350 2950 0    50   Input ~ 0
CELL1_VCC
Text GLabel 1625 6775 0    50   Input ~ 0
CELL1_VCC
Text Notes 2250 6900 0    50   ~ 0
CR2032 directly connected to LDO
Wire Notes Line
	2225 6800 2225 6925
Wire Notes Line
	3600 6925 3600 6800
Wire Notes Line
	2225 6800 3600 6800
Wire Notes Line
	2225 6925 3600 6925
Text Notes 2225 6325 0    50   ~ 0
Via PFET protection
Wire Notes Line
	2200 6200 3000 6200
Wire Notes Line
	3000 6200 3000 6350
Wire Notes Line
	3000 6350 2200 6350
Wire Notes Line
	2200 6350 2200 6200
Text Notes 975  1600 0    50   ~ 0
CELL1_VCC can be:\n\n1 or 2 cell LiFePo battery\nor CR2032.\n
Wire Notes Line
	875  1175 3400 1175
Wire Notes Line
	875  2150 3400 2150
Wire Notes Line
	875  1150 875  2150
Text Notes 2150 5875 0    50   ~ 0
Cell 4 is NOT connected to LDO/MCU.
$EndSCHEMATC
